<svg width="100%" height="100%" viewBox="0 0 100 100" xmlns="http://www.w3.org/2000/svg" stroke="#ffffff" preserveAspectRatio="xMinYMin meet">
    <g fill="none" fill-rule="evenodd" stroke-width="1">
        <circle cx="50%" cy="50%" r="1">
            <animate attributeName="r"
                     begin="0s" dur="1.8s"
                     values="1; 20"
                     calcMode="spline"
                     keyTimes="0; 1"
                     keySplines="0.165, 0.84, 0.44, 1"
                     repeatCount="indefinite" />
            <animate attributeName="stroke-opacity"
                     begin="0s" dur="1.8s"
                     values="1; 0"
                     calcMode="spline"
                     keyTimes="0; 1"
                     keySplines="0.3, 0.61, 0.355, 1"
                     repeatCount="indefinite" />
        </circle>
        <circle cx="50%" cy="50%" r="1">
            <animate attributeName="r"
                     begin="-0.9s" dur="1.8s"
                     values="1; 20"
                     calcMode="spline"
                     keyTimes="0; 1"
                     keySplines="0.165, 0.84, 0.44, 1"
                     repeatCount="indefinite" />
            <animate attributeName="stroke-opacity"
                     begin="-0.9s" dur="1.8s"
                     values="1; 0"
                     calcMode="spline"
                     keyTimes="0; 1"
                     keySplines="0.3, 0.61, 0.355, 1"
                     repeatCount="indefinite" />
        </circle>
    </g>
</svg>
